cn4182
Tue Jul 24 16:30:36 UTC 2018
--nlayers=4  --conv_size=5  --activation=tanh  --loss_func=dice  --augmentation=1.0  --num_filters=64  --last_act=sigmoid
0.240465286237
Tue Jul 24 16:30:36 UTC 2018
