cn4181
Tue Jul 24 16:30:36 UTC 2018
--nlayers=5  --conv_size=3  --activation=tanh  --loss_func=dice  --augmentation=1.5  --num_filters=64  --last_act=sigmoid
0.586137564613
Tue Jul 24 16:30:36 UTC 2018
