gene,Gstart,Gstop,Tstart,Tstop,transcript#
thrL,190,255,44,109,1
thrA,337,2799,191,2653,1
thrB,2801,3733,2655,3587,1
thrC,3734,5020,3588,4874,1
talB,8238,9191,47,1000,2
dnaK,12163,14079,115,2031,3
dnaJ,14168,15298,2120,3250,3
nhaA,17489,18655,179,1345,4
rpsT,20815,21078,130,393,5
ribF,21407,22348,24,965,6
ileS,22391,25207,1008,3824,6
lspA,25207,25701,3824,4318,6
fkpB,25826,26275,4443,4892,6
ispH,26277,27227,4894,5844,6
rsmA,51609,52430,158,979,7
lptD,54755,57109,144,2498,8
surA,53416,54702,2551,3837,8
mraZ,89634,90092,45,503,9
rsmH,90094,91035,505,1446,9
ftsL,91032,91397,1443,1808,9
ftsI,91413,93179,1824,3590,9
murE,93166,94653,3577,5064,9
murF,94650,96008,5061,6419,9
mraY,96002,97084,6413,7495,9
murD,97087,98403,7498,8814,9
ftsW,98403,99647,8814,10058,9
murG,99644,100711,10055,11122,9
murC,100765,102240,11176,12651,9
ddlB,102233,103153,12644,13564,9
ftsQ,103155,103985,283,1113,10
ftsA,103982,105244,1110,2372,10
ftsZ,105305,106456,2433,3584,10
lpxC,106557,107474,55,972,11
secM,107705,108217,37,549,12
secA,108279,110984,611,3316,12
aceE,123017,125680,48,2711,13
aceF,125695,127587,2726,4618,13
lpd,127912,129336,195,1619,14
acnB,131615,134212,96,2693,15
can,142008,142670,33,695,16
panD,146314,146694,30,410,17
dksA,160149,160604,54,509,18
hemL,173602,174882,109,1389,19
degP,180884,182308,215,1639,20
rpsB,189874,190599,162,887,21
tsf,190857,191708,1145,1996,21
pyrH,191855,192580,44,769,22
frr,192872,193429,1061,1618,22
ispU,194903,195664,120,881,23
cdsA,195677,196534,894,1751,23
rseP,196546,197898,1763,3115,23
bamA,197928,200360,3145,5577,23
skp,200482,200967,5699,6184,23
lpxD,200971,201996,6188,7213,23
fabZ,202101,202556,7318,7773,23
lpxA,202560,203348,7777,8565,23
lpxB,203348,204496,8565,9713,23
rnhB,204493,205089,9710,10306,23
dnaE,205126,208608,10343,13825,23
accA,208621,209580,345,1304,24
proS,217057,218775,62,1780,25
pepD,254259,255716,92,1549,26
ahpC,638168,638731,255,818,27
cspE,656515,656724,43,252,28
leuS,671424,674006,62,2644,29
lptE,670828,671409,2659,3240,29
tRNA_metT,696280,696356,31,107,30
tRNA_leuW,696186,696270,117,201,30
tRNA_glnU,696088,696162,225,299,30
tRNA_glnW,695979,696053,334,408,30
tRNA_metU,695887,695963,424,500,30
tRNA_glnV,695765,695839,548,622,30
tRNA_glnX,695653,695727,660,734,30
ybeZ,691561,692601,92,1132,31
ybeY,691097,691564,1129,1596,31
ybeX,690129,691007,1686,2564,31
glnS,705316,706980,30,1694,32
seqA,712210,712755,136,681,33
pgm,712781,714421,707,2347,33
cydA,770681,772249,288,1856,34
cydB,772265,773404,1872,3011,34
ybgT,773419,773532,3026,3139,34
ybgE,773532,773825,3139,3432,34
tolB,776963,778255,29,1321,35
pal,778290,778811,1356,1877,35
ybgF,778821,779612,1887,2678,35
tRNA_lysT,779777,779852,43,118,36
tRNA_valT,779988,780063,254,329,36
tRNA_lysW,780066,780141,332,407,36
tRNA_valZ,780291,780366,557,632,36
tRNA_lysY,780370,780445,636,711,36
tRNA_lysZ,780592,780667,858,933,36
tRNA_lysQ,780800,780875,1066,1141,36
gpmA,786066,786818,75,827,37
clpA,922487,924763,186,2462,38
trxB,930308,931273,28,993,39
lrp,931818,932312,267,761,40
serS,938651,939943,180,1472,41
rpsA,961218,962891,133,1806,42
ihfB,963051,963335,80,364,43
asnS,986808,988208,59,1459,44
ompA,1018236,1019276,134,1174,45
hspQ,1027627,1027944,145,462,46
yccA,1029982,1030641,36,695,47
rne,1140405,1143590,362,3547,48
yceD,1146017,1146538,145,666,49
rpmF,1146590,1146763,718,891,49
plsX,1146844,1147914,972,2042,49
fabH,1147982,1148935,2110,3063,49
fabD,1148951,1149880,3079,4008,49
fabG,1149893,1150627,4021,4755,49
acpP,1150838,1151074,39,275,50
fabF,1151162,1152403,363,1604,50
ptsG,1157092,1158525,243,1676,51
prs,1260151,1261098,302,1249,52
oppA,1299206,1300837,511,2142,53
oppB,1300923,1301843,2228,3148,53
oppC,1301858,1302766,3163,4071,53
oppD,1302778,1303791,4083,5096,53
oppF,1303788,1304792,5093,6097,53
topA,1329072,1331669,168,2765,54
fabI,1348275,1349063,82,870,55
tpx,1386329,1386835,33,539,56
fnr,1396798,1397550,26,778,57
dtpA,1710793,1712295,99,1601,58
slyB,1717900,1718367,45,512,59
sodB,1733402,1733983,53,634,60
lpp,1755445,1755681,38,274,61
pheS,1795983,1796966,178,1161,62
pheT,1793581,1795968,1176,3563,62
ihfA,1793277,1793576,3568,3867,62
rpmI,1797826,1798023,429,626,63
rplT,1797417,1797773,679,1035,63
thrS,1798666,1800594,162,2090,64
infC,1798120,1798662,2094,2636,64
gapA,1860795,1861790,174,1169,65
mipA,1863750,1864496,34,780,66
sdaA,1894956,1896320,169,1533,67
yobF,1905472,1905615,27,170,68
cspC,1905250,1905459,183,392,68
htpX,1909719,1910600,43,924,69
yebR,1913655,1914152,38,535,70
proQ,1912860,1913558,632,1330,70
prc,1910792,1912840,1350,3398,70
aspS,1946774,1948546,190,1962,71
nudB,1946204,1946656,2080,2532,71
yebC,1945435,1946175,2561,3301,71
ruvC,1944879,1945400,3336,3857,71
tRNA_glyW,1990066,1990141,66,141,72
tRNA_cysT,1989938,1990011,196,269,72
tRNA_leuZ,1989839,1989925,282,368,72
gnd,2097886,2099292,57,1463,73
metG,2192322,2194355,31,2064,74
fruB,2260387,2261517,100,1230,75
fruK,2259449,2260387,1230,2168,75
fruA,2257741,2259432,2185,3876,75
spr,2268001,2268567,169,735,76
rplY,2280539,2280823,77,361,77
ompC,2309668,2310771,79,1182,78
rcsB,2314199,2314849,483,1133,79
gyrA,2334815,2337442,38,2665,80
ackA,2411492,2412694,223,1425,81
pta,2412769,2414913,1500,3644,81
accD,2431034,2431948,50,964,82
mlaA,2462274,2463029,78,833,83
gltX,2517279,2518694,101,1516,84
zipA,2528269,2529255,319,1305,85
ptsH,2531786,2532043,163,420,86
ptsI,2532088,2533815,465,2192,86
crr,2533856,2534365,2233,2742,86
dapA,2596904,2597782,24,902,87
bamC,2595853,2596887,919,1953,87
hisS,2637323,2638597,67,1341,88
yfgM,2636685,2637305,1359,1979,88
bamB,2635496,2636674,1990,3168,88
iscR,2659665,2660153,69,557,89
iscS,2658339,2659553,669,1883,89
iscU,2657925,2658311,1911,2297,89
iscA,2657585,2657908,2314,2637,89
hscB,2656974,2657489,2733,3248,89
hscA,2655107,2656957,3265,5115,89
fdx,2654770,2655105,5117,5452,89
iscX,2654558,2654758,5464,5664,89
pepB,2653097,2654380,5842,7125,89
sseB,2652179,2652955,7267,8043,89
lepA,2703347,2705146,73,1872,90
lepB,2702357,2703331,1888,2862,90
rpoE,2707459,2708034,77,652,91
rseA,2706776,2707426,685,1335,91
rseB,2705820,2706776,1335,2291,91
rseC,2705344,2705823,2288,2767,91
kgtP,2722470,2723768,65,1363,92
clpB,2729622,2732195,122,2695,93
bamD,2734168,2734905,76,813,94
raiA,2735176,2735517,30,371,95
rpsP,2743959,2744207,69,317,96
rimM,2743392,2743940,336,884,96
trmD,2742594,2743361,915,1682,96
rplS,2742205,2742552,1724,2071,96
grpE,2748137,2748730,38,631,97
bamE,2751627,2751968,137,478,98
tmRNA_ssrA,2753615,2753977,1,363,99
proV,2802837,2804039,66,1268,100
proW,2804032,2805096,1261,2325,100
proX,2805154,2806146,2383,3375,100
alaS,2817403,2820033,79,2709,101
csrA,2816983,2817168,2944,3129,101
rpoS,2864581,2865573,567,1559,102
pyrG,2906051,2907688,54,1691,103
eno,2904665,2905963,1779,3077,103
sdaC,2926251,2927540,127,1416,104
sdaB,2927598,2928965,1474,2841,104
ncRNA_gcvB,2940718,2940923,1,206,105
xerD,3036869,3037765,54,950,106
dsbC,3036134,3036844,975,1685,106
recJ,3034395,3036128,1691,3424,106
prfB,3033206,3034304,3515,4613,106
lysS,3031679,3033196,4623,6140,106
ncRNA_ssrS,3054005,3054187,1,183,107
epd,3070694,3071713,132,1151,108
pgk,3069481,3070644,1201,2364,108
fbaA,3068187,3069266,2579,3658,108
tktA,3077666,3079657,80,2071,109
ygiN,3171164,3171478,22,336,110
tolC,3176137,3177618,249,1730,111
ygiB,3177766,3178437,27,698,112
ygiC,3178443,3179603,704,1864,112
rpsU,3208803,3209018,65,280,113
rpoD,3211069,3212910,355,2196,114
ncRNA_rnpB,3268238,3268614,1,377,115
pnp,3307055,3309190,159,2294,116
nlpI,3306062,3306946,2403,3287,116
yrbN,3305875,3305955,3394,3474,116
deaD,3303993,3305882,3467,5356,116
rpsO,3309437,3309706,103,372,117
rimP,3315576,3316028,170,622,118
nusA,3314061,3315548,650,2137,118
infB,3311364,3314036,2162,4834,118
rbfA,3310799,3311200,4998,5399,118
truB,3309855,3310799,5399,6343,118
secG,3320195,3320527,86,418,119
tRNA_leuU,3320094,3320180,433,519,119
rlmE,3325057,3325686,68,697,120
ftsH,3323023,3324957,797,2731,120
yhbY,3325812,3326105,31,324,121
rplU,3331162,3331473,66,377,122
rpmA,3330884,3331141,398,655,122
yhbE,3329792,3330757,782,1747,122
obgE,3328604,3329776,1763,2935,122
mlaF,3337278,3338087,179,988,123
mlaE,3336488,3337270,996,1778,123
mlaD,3335932,3336483,1783,2334,123
mlaC,3335278,3335913,2353,2988,123
mlaB,3334985,3335278,2988,3281,123
yrbA,3334571,3334825,3441,3695,123
murA,3333257,3334516,3750,5009,123
yrbG,3338297,3339274,64,1041,124
kdsD,3339288,3340274,1055,2041,124
kdsC,3340295,3340861,2062,2628,124
lptC,3340858,3341433,2625,3200,124
lptA,3341402,3341959,3169,3726,124
lptB,3341966,3342691,3733,4458,124
rpoN,3342739,3344172,4506,5939,124
hpf,3344195,3344482,5962,6249,124
ptsN,3344600,3345091,6367,6858,124
yhbJ,3345137,3345991,6904,7758,124
npr,3345988,3346260,7755,8027,124
yrbL,3346474,3347106,27,659,125
sspA,3374804,3375442,146,784,126
sspB,3374301,3374798,790,1287,126
rplM,3376245,3376673,157,585,127
rpsI,3375837,3376229,601,993,127
mdh,3381352,3382290,204,1142,128
accB,3403458,3403928,297,767,129
accC,3403939,3405288,778,2127,129
dusB,3408302,3409267,34,999,130
fis,3409293,3409589,1025,1321,130
rplN,3445800,3446171,75,446,131
rplX,3445475,3445789,457,771,131
rplE,3444921,3445460,786,1325,131
rpsN,3444601,3444906,1340,1645,131
rpsH,3444175,3444567,1679,2071,131
rplF,3443629,3444162,2084,2617,131
rplR,3443266,3443619,2627,2980,131
rpsE,3442748,3443251,2995,3498,131
rpmD,3442565,3442744,3502,3681,131
rplO,3442127,3442561,3685,4119,131
secY,3440788,3442119,4127,5458,131
rpmJ,3440640,3440756,5490,5606,131
rpsM,3440137,3440493,5753,6109,131
rpsK,3439731,3440120,6126,6515,131
rpsD,3439077,3439697,6549,7169,131
rpoA,3438062,3439051,7195,8184,131
rplQ,3437638,3438021,8225,8608,131
rpsJ,3450981,3451292,172,483,132
rplC,3450319,3450948,516,1145,132
rplD,3449703,3450308,1156,1761,132
rplW,3449404,3449706,1758,2060,132
rplB,3448565,3449386,2078,2899,132
rpsS,3448270,3448548,2916,3194,132
rplV,3447923,3448255,3209,3541,132
rpsC,3447204,3447905,3559,4260,132
rplP,3446781,3447191,4273,4683,132
rpmC,3446590,3446781,4683,4874,132
rpsQ,3446336,3446590,4874,5128,132
rpsL,3472200,3472574,68,442,133
rpsG,3471564,3472103,539,1078,133
fusA,3469422,3471536,1106,3220,133
tufA,3468167,3469351,3291,4475,133
slyD,3475929,3476519,62,652,134
crp,3484142,3484774,167,799,135
pck,3530840,3532462,139,1761,136
nfuA,3543646,3544221,167,742,137
malT,3551107,3553812,62,2767,138
glpD,3560036,3561541,43,1548,139
asd,3571798,3572901,64,1167,140
rpoH,3597952,3598806,221,1075,141
pitA,3635665,3637164,64,1563,142
cspA,3718072,3718284,161,373,143
glyQ,3722430,3723341,36,947,144
glyS,3720351,3722420,957,3026,144
bax,3734376,3735200,64,888,145
yibN,3782607,3783038,39,470,146
grxC,3782214,3782465,612,863,146
secB,3781684,3782151,926,1393,146
gpsA,3780665,3781684,1393,2412,146
cysE,3779764,3780585,2492,3313,146
rpmB,3809461,3809697,322,558,147
rpmG,3809273,3809440,579,746,147
gmk,3819451,3820074,42,665,148
rpoZ,3820129,3820404,720,995,148
spoT,3820423,3822531,1014,3122,148
trmH,3822538,3823227,3129,3818,148
recG,3823233,3825314,3824,5905,148
rpmH,3882359,3882499,222,362,149
rnpA,3882516,3882875,379,738,149
yidD,3882839,3883096,702,959,149
yidC,3883099,3884745,962,2608,149
glmU,3911853,3913223,21,1391,150
glmS,3909862,3911691,1553,3382,150
atpI,3920083,3920463,85,465,151
atpB,3919259,3920074,474,1289,151
atpE,3918973,3919212,1336,1575,151
atpF,3918441,3918911,1637,2107,151
atpH,3917893,3918426,2122,2655,151
atpA,3916339,3917880,2668,4209,151
atpG,3915425,3916288,4260,5123,151
atpD,3914016,3915398,5150,6532,151
atpC,3913576,3913995,6553,6972,151
asnA,3925178,3926170,23,1015,152
rhlB,3962388,3963653,1,1266,153
gpp,3960768,3962252,1402,2886,153
trxA,3963784,3964113,111,440,154
rho,3964440,3965699,767,2026,154
yifK,3978910,3980295,64,1449,155
tRNA_argX,3980398,3980474,12,88,156
tRNA_hisR,3980532,3980608,146,222,156
tRNA_leuT,3980629,3980715,243,329,156
hemC,3987848,3988789,173,1114,158
hemD,3987111,3987851,1111,1851,158
hemX,3985908,3987089,1873,3054,158
hemY,3984709,3985905,3057,4253,158
yifL,3992545,3992748,31,234,159
dapF,3992785,3993609,271,1095,159
yigA,3993606,3994313,1092,1799,159
xerC,3994310,3995206,1796,2692,159
yigB,3995206,3995922,2692,3408,159
uvrD,3996006,3998168,3492,5654,159
udp,4014454,4015215,41,802,160
ubiE,4016878,4017633,27,782,161
yigP,4017647,4018252,796,1401,161
ubiB,4018249,4019889,1398,3038,161
tatA,4019968,4020237,3117,3386,161
tatB,4020241,4020756,3390,3905,161
tatC,4020759,4021535,3908,4684,161
glnA,4054648,4056057,73,1482,162
typA,4056430,4058253,81,1904,163
fdoG,4080795,4083845,140,3190,164
fdoH,4079880,4080782,3203,4105,164
fdoI,4079248,4079883,4102,4737,164
fdhE,4078322,4079251,4734,5663,164
sodA,4098833,4099453,51,671,165
cpxR,4102995,4103693,16,714,166
cpxA,4101625,4102998,711,2084,166
cpxP,4103843,4104343,35,535,167
pfkA,4105575,4106537,507,1469,168
tpiA,4108763,4109530,63,830,169
rraA,4116868,4117353,26,511,170
hslV,4119780,4120310,68,598,171
hslU,4118439,4119770,608,1939,171
rpmE,4125036,4125248,102,314,172
ppc,4148470,4151121,90,2741,173
oxyR,4156513,4157430,34,951,174
fabR,4159147,4159794,45,692,175
yijD,4159794,4160153,692,1051,175
rplK,4176470,4176898,93,521,176
rplA,4176902,4177606,525,1229,176
rplJ,4178019,4178516,1642,2139,176
rplL,4178583,4178948,2206,2571,176
rpoB,4179268,4183296,2891,6919,176
rpoC,4183373,4187596,6996,11219,176
hupA,4198304,4198576,105,377,177
aceB,4213501,4215102,74,1675,178
aceA,4215132,4216436,1705,3009,178
pgi,4231781,4233430,37,1686,179
dgkA,4254660,4255028,180,548,180
lexA,4255138,4255746,658,1266,180
lysU,4351223,4352740,19,1536,181
dcuA,4363495,4364796,60,1361,182
aspA,4364914,4366350,105,1541,183
groS,4368711,4369004,72,365,184
groL,4369048,4370694,409,2055,184
rsgA,4388480,4389532,80,1132,185
miaA,4397275,4398225,200,1150,186
hfq,4398311,4398619,1236,1544,186
hflX,4398695,4399975,1620,2900,186
hflK,4400061,4401320,2986,4245,186
hflC,4401323,4402327,4248,5252,186
purA,4402710,4404008,22,1320,187
rpsF,4423141,4423536,93,488,188
priB,4423543,4423857,495,809,188
rpsR,4423862,4424089,814,1041,188
rplI,4424131,4424580,1083,1532,188
ytfK,4437610,4437816,76,282,189
ppa,4447145,4447675,35,565,190
pepA,4482463,4483974,159,1670,191
holC,4481860,4482303,1830,2273,191
valS,4479005,4481860,2273,5128,191
lptF,4484241,4485341,158,1258,192
lptG,4485341,4486423,1258,2340,192
fimA,4541138,4541686,121,669,193
yjjK,4626878,4628545,42,1709,194
