cn4181
Tue Jul 24 16:30:36 UTC 2018
--nlayers=4  --conv_size=5  --activation=tanh  --loss_func=dice  --augmentation=2.0  --num_filters=32  --last_act=sigmoid
0.497604849696
Tue Jul 24 16:30:36 UTC 2018
