cn4181
Tue Jul 24 16:30:36 UTC 2018
--nlayers=5  --conv_size=5  --activation=relu  --loss_func=dice  --augmentation=1.0  --num_filters=16  --last_act=sigmoid
0.411748528137
Tue Jul 24 16:30:36 UTC 2018
